{
  "data": {
    "page": 1,
    "total_results": 10000,
    "total_pages": 500,
    "results": [
      {
        "popularity": 144.252,
        "vote_count": 82,
        "video": false,
        "poster_path": "/hPkqY2EMqWUnFEoedukilIUieVG.jpg",
        "id": 531876,
        "adult": false,
        "backdrop_path": "/n1RohH2VoK1CdVI2fXvcP19dSlm.jpg",
        "original_language": "en",
        "original_title": "The Outpost",
        "genre_ids": [28, 18, 36, 10752],
        "title": "The Outpost",
        "vote_average": 7,
        "overview": "",
        "release_date": "2020-06-24"
      },
      {
        "popularity": 143.254,
        "vote_count": 3897,
        "video": false,
        "poster_path": "/xJUILftRf6TJxloOgrilOTJfeOn.jpg",
        "id": 419704,
        "adult": false,
        "backdrop_path": "/AeDS2MKGFy6QcjgWbJBde0Ga6Hd.jpg",
        "original_language": "en",
        "original_title": "Ad Astra",
        "genre_ids": [18, 878],
        "title": "До звезда",
        "vote_average": 6.1,
        "overview": "Војни инжењер кроз галаксију тражи свог оца, који је нестао 20 година раније, у мисији потраге за ванземаљским животом.",
        "release_date": "2019-09-17"
      },
      {
        "popularity": 131.926,
        "vote_count": 39,
        "video": false,
        "poster_path": "/AsdB9A2XGalCZVjlyG9tRf03IfW.jpg",
        "id": 516486,
        "adult": false,
        "backdrop_path": "/xXBnM6uSTk6qqCf0SRZKXcga9Ba.jpg",
        "original_language": "en",
        "original_title": "Greyhound",
        "genre_ids": [28, 18, 10752],
        "title": "Greyhound",
        "vote_average": 6.1,
        "overview": "",
        "release_date": "2020-07-10"
      },
      {
        "popularity": 128.075,
        "vote_count": 254,
        "video": false,
        "poster_path": "/cjr4NWURcVN3gW5FlHeabgBHLrY.jpg",
        "id": 547016,
        "adult": false,
        "backdrop_path": "/ydG0xRwMqFzCESJ9TwvPHJM1gkq.jpg",
        "original_language": "en",
        "original_title": "The Old Guard",
        "genre_ids": [28, 14],
        "title": "The Old Guard",
        "vote_average": 7.3,
        "overview": "",
        "release_date": "2020-07-10"
      },
      {
        "popularity": 112.497,
        "vote_count": 185,
        "video": false,
        "poster_path": "/h1B7tW0t399VDjAcWJh8m87469b.jpg",
        "id": 556574,
        "adult": false,
        "backdrop_path": "/uWVkEo9PWHu9algZsiLPi6sRU64.jpg",
        "original_language": "en",
        "original_title": "Hamilton",
        "genre_ids": [18, 36, 10402],
        "title": "Hamilton",
        "vote_average": 8.5,
        "overview": "",
        "release_date": "2020-07-03"
      },
      {
        "popularity": 103.578,
        "vote_count": 80,
        "video": false,
        "poster_path": "/AcL5wrC07KdaUlkLJisaRAJ4J0M.jpg",
        "id": 428045,
        "adult": false,
        "backdrop_path": "/5yiCqzmxYv36GGdc05egCMHedbX.jpg",
        "original_language": "ru",
        "original_title": "Тайна Печати дракона",
        "genre_ids": [12, 14],
        "title": "Тайна Печати дракона",
        "vote_average": 5.5,
        "overview": "",
        "release_date": "2019-08-16"
      },
      {
        "popularity": 100.949,
        "vote_count": 1856,
        "video": false,
        "poster_path": "/oL2YfVznSkKh6tGWR98j3hxSRZ5.jpg",
        "id": 8619,
        "adult": false,
        "backdrop_path": "/m11Mej9vbQqcXWgYrgPboCJ9NUh.jpg",
        "original_language": "en",
        "original_title": "Master and Commander: The Far Side of the World",
        "genre_ids": [12, 18, 10752],
        "title": "Господар и војсковођа",
        "vote_average": 7,
        "overview": "Расел Кроу је капетан Џек Обри, авантуриста који је најбољи пријатељ са бродским хирургом Стивеном Матурином. Пошто су већ освојиле већи део европске територије, Наполеонове трупе намеравају да освоје Британију, па Обри и његова бродска посада крећу у пловидбу Пацификом да би пресрели сваки брод из француске флоте.",
        "release_date": "2003-11-14"
      },
      {
        "popularity": 94.728,
        "vote_count": 17419,
        "video": false,
        "poster_path": "/wuMc08IPKEatf9rnMNXvIDxqP4W.jpg",
        "id": 671,
        "adult": false,
        "backdrop_path": "/hziiv14OpD73u9gAak4XDDfBKa2.jpg",
        "original_language": "en",
        "original_title": "Harry Potter and the Philosopher's Stone",
        "genre_ids": [12, 14, 10751],
        "title": "Хари Потер и камен мудрости",
        "vote_average": 7.9,
        "overview": "Главни јунак Хари је невољено сироче. Он је одрастао с породицом Дарсли, која се према њему опходила као према левом сметалу. Ипак, једнога дана, непосредно пред Харијев једанаести рођендан, њему почињу да стижу писма. Препознавши коверат са Хогвортса, школе за вештице и чаробњаке, његови тетка и теча то сакрију од Харија. Али дечак ипак сазнаје да је другачији од својих рођака, да је чаробњак и да је његове родитеље убио зли Лорд Волдеморт. На путу за Хогвортс упознаје Рона Визлија, који му постаје најбољи друг, као и Хермиону Гренџер, која ће постати трећи члан дружине...",
        "release_date": "2001-11-16"
      },
      {
        "popularity": 92.609,
        "vote_count": 150,
        "video": false,
        "poster_path": "/hoUzSMxGu4Bm73EvH6B3iceFwW8.jpg",
        "id": 706510,
        "adult": false,
        "backdrop_path": "/k8H6Qp4uJ9WHArPQwDqCaW9g3Sj.jpg",
        "original_language": "en",
        "original_title": "Desperados",
        "genre_ids": [35, 10749],
        "title": "Desperados",
        "vote_average": 6.5,
        "overview": "",
        "release_date": "2020-07-03"
      },
      {
        "popularity": 91.135,
        "vote_count": 617,
        "video": false,
        "poster_path": "/mhDdx7o7hhrxrikq8aqPLLnS9w8.jpg",
        "id": 475430,
        "adult": false,
        "backdrop_path": "/o0F8xAt8YuEm5mEZviX5pEFC12y.jpg",
        "original_language": "en",
        "original_title": "Artemis Fowl",
        "genre_ids": [12, 14, 878, 10751],
        "title": "Артемис Фаул",
        "vote_average": 5.8,
        "overview": "Филм прати истоименог дванаестогодишњег генија, потомка породице злочиначких умова, кога затичемо у борби снаге и вештине против моћне, тајанствене расе вила које су вероватно одговорне за нестанак његовог оца.",
        "release_date": "2020-06-12"
      },
      {
        "popularity": 89.316,
        "id": 49017,
        "video": false,
        "vote_count": 4396,
        "vote_average": 6.3,
        "title": "Дракула: Неиспричана прича",
        "release_date": "2014-10-01",
        "original_language": "en",
        "original_title": "Dracula Untold",
        "genre_ids": [27, 28, 18, 14, 10752],
        "backdrop_path": "/f02FFv77Rh62633YEjimv7C6JM3.jpg",
        "adult": false,
        "overview": "За разлику од многобројних претходника који су у центар стављали вампирски свет Влада III рођеног у Трансилванији 1431., акцијски спектакл Дракула Неиспричана прича упознаје нас са догађајима који су претходили његовом преласку на тамну страну.",
        "poster_path": "/m5h3NtZ2ZfryIHl1MvatmANvIqQ.jpg"
      },
      {
        "popularity": 84.788,
        "id": 157336,
        "video": false,
        "vote_count": 22974,
        "vote_average": 8.3,
        "title": "Међузвездани",
        "release_date": "2014-11-05",
        "original_language": "en",
        "original_title": "Interstellar",
        "genre_ids": [12, 18, 878],
        "backdrop_path": "/xJHokMbljvjADYdit5fK5VQsXEG.jpg",
        "adult": false,
        "overview": "МЕЂУЗВЕЗДАНИ нас кроз причу о бившем пилоту Куперу, који живи у време када су људској врсти дани на Земљи одбројани, води преко граница Сунчевог система у неоткривене светове које славни оскаровац (Метју Меконахи) истражује заједно с астронауткињом Бранд (Ен Хатавеј). Али, потрага за новим домом човечанства осим рискантног путовања укључује и трку с временом као и неизвестан повратак који отвара питање шта ће затећи на Земљи ако се на њу уопште и врате.",
        "poster_path": "/gEU2QniE6E77NI6lCU6MxlNBvIx.jpg"
      },
      {
        "popularity": 84.722,
        "vote_count": 5009,
        "video": false,
        "poster_path": "/aQvJ5WPzZgYVDrxLX4R6cLJCEaQ.jpg",
        "id": 454626,
        "adult": false,
        "backdrop_path": "/stmYfCUGd8Iy6kAMBr6AmWqx8Bq.jpg",
        "original_language": "en",
        "original_title": "Sonic the Hedgehog",
        "genre_ids": [28, 35, 878, 10751],
        "title": "Соников филм",
        "vote_average": 7.5,
        "overview": "Радња филм прати Соника који покушава да управља својим животом на Земљи и односом са новим, најбољим пријатељем, човеком Томом. Соник и Том ће удружити снаге у покушају да спрече озлоглашеног доктора Роботника, који жели да ухвати Соника и искористи његове немерљиве моћи како би успоставио доминацију над читавим светом.",
        "release_date": "2020-02-12"
      },
      {
        "popularity": 82.673,
        "vote_count": 13650,
        "video": false,
        "poster_path": "/udDclJoHjfjb8Ekgsd4FDteOkCU.jpg",
        "id": 475557,
        "adult": false,
        "backdrop_path": "/n6bUvigpRFqSwmPp1m2YADdbRBc.jpg",
        "original_language": "en",
        "original_title": "Joker",
        "genre_ids": [80, 18, 53],
        "title": "Џокер",
        "vote_average": 8.2,
        "overview": "„Џокер“ је филмска прича у којој ћемо сазнати како је овај лик постао највећи страх и трепет Готам Ситија. Хоакин Финикс тумачи Артура Флека, неуспешног стандaп комичара који дању ради као кловн. Он се осећа одбаченим од стране друштва, а своју неприлагођеност окружењу открива сваки пут када се манијакално смеје у најмање прикладним тренуцима. Његовом душевном стању не помажу ни озбиљни психички проблеми од којих пати. Артур се стара о својој мајци, али се види да му видно недостаје очинска фигура па је принуђен да је тражи међу људима као што су телевизијски водитељ Мареј Френклин кога глуми Роберт Де Ниро и милијардер Томас Вејн кога глуми Брет Кален. У свом психичком расулу, њему се чини да је насиље једино решење…",
        "release_date": "2019-10-02"
      },
      {
        "popularity": 80.485,
        "vote_count": 26417,
        "video": false,
        "poster_path": "/9gk7adHYeDvHkCSEqAvQNLV5Uge.jpg",
        "id": 27205,
        "adult": false,
        "backdrop_path": "/s3TBrRGB1iav7gFOCNx3H31MoES.jpg",
        "original_language": "en",
        "original_title": "Inception",
        "genre_ids": [28, 12, 878],
        "title": "Почетак",
        "vote_average": 8.3,
        "overview": "Дом Коб (Леонардо ди Каприо) је вешт лопов, апсолутно најбољи у опасној уметности извлачења информација. Он краде драгоцене тајне из најдубље подсвести, за време сна, када је ум најрањивији. Ретка способност учинила га је похлепним играчем у новом, подмуклом свету корпоративне шпијунаже, али је од њега направила и међународног бегунца и коштаће га свега што је икада волео. Кобу је сада понуђена могућност да се искупи. Последњи посао могао би да му поврати стари живот, али само ако буде у стању да учини немогуће: почетак. У свету у којем је могуће ући у снове једна идеја из људског ума може бити најопасније оружје или највећа вредност.",
        "release_date": "2010-07-15"
      },
      {
        "popularity": 79.3,
        "vote_count": 3662,
        "video": false,
        "poster_path": "/bCYRgsT0Kndh23a6kHazBdXWCn1.jpg",
        "id": 166428,
        "adult": false,
        "backdrop_path": "/lFwykSz3Ykj1Q3JXJURnGUTNf1o.jpg",
        "original_language": "en",
        "original_title": "How to Train Your Dragon: The Hidden World",
        "genre_ids": [12, 16, 10751],
        "title": "Како да дресирате свог змаја 3",
        "vote_average": 7.8,
        "overview": "Оно што ће почети као неочекивано пријатељство између младог Викинга и неустрашивог змаја претвориће се у авантуру која превазилази и сам живот. Биоскопска публика имаће прилику да ужива у новом филму једне од најомиљенијих анимираних сага свих времена!  Нови поглавица и владар Берка створио је величанствену и хаотичну утопију. Село у коме наши јунаци живе суочиће се са најмрачниЈом претњом до сада, а они ће морати да га напусте и крену на путовање кроз скривени свет за који су мислили да постоји само у митовима.",
        "release_date": "2019-01-03"
      },
      {
        "popularity": 76.299,
        "id": 496243,
        "video": false,
        "vote_count": 8315,
        "vote_average": 8.5,
        "title": "Паразит",
        "release_date": "2019-05-30",
        "original_language": "ko",
        "original_title": "기생충",
        "genre_ids": [35, 53, 18],
        "backdrop_path": "/ApiBzeaa95TNYliSbQ8pJv4Fje7.jpg",
        "adult": false,
        "overview": "Сви су незапослени у Ки-таековој породици. Они показују велико интересовање за богате и гламурозне Паркове, све док не постану протагонисти веома чудног и неочекиваног догађаја.",
        "poster_path": "/w9Z3OP0puzO76vQNOpDBhKk29qI.jpg"
      },
      {
        "popularity": 75.627,
        "id": 495764,
        "video": false,
        "vote_count": 4906,
        "vote_average": 7.2,
        "title": "Птице грабљивице и фантастична еманципација Харли Квин",
        "release_date": "2020-02-05",
        "original_language": "en",
        "original_title": "Birds of Prey (and the Fantabulous Emancipation of One Harley Quinn)",
        "genre_ids": [28, 80, 35, 18],
        "backdrop_path": "/9xNOiv6DZZjH7ABoUUDP0ZynouU.jpg",
        "adult": false,
        "overview": "Припремите се даме, јер стиже фамозна, непоновљива и потпуно непредвидљива Харли Квин. Овај пут без Џокера. Радња се одвија око групе хероина и негативки ДиСи-јевог универзума, а главна звезда је Маргот Роби као фамозна Харли Квин коју смо већ имали прилике да гледамо и у филму Одред отписаних.",
        "poster_path": "/h4VB6m0RwcicVEZvzftYZyKXs6K.jpg"
      },
      {
        "popularity": 74.237,
        "id": 299536,
        "video": false,
        "vote_count": 18854,
        "vote_average": 8.3,
        "title": "Осветници: Рат бескраја",
        "release_date": "2018-04-25",
        "original_language": "en",
        "original_title": "Avengers: Infinity War",
        "genre_ids": [12, 28, 878],
        "backdrop_path": "/lmZFxXgJE3vgrciwuDib0N8CfQo.jpg",
        "adult": false,
        "overview": "Очекујте неочекивано са свим вољеним херојима окупљеним на новом задатку, у филмском путовању без преседана где ће се срести сви ликови Марвеловог филмског универзума. Карте ће бити положене, по последњи пут и то на ултимативни, најсмртоноснији начин до сада. Осветници и њихови савезници мораће да буду спремни да жртвују све у покушају да савладају моћног Таноса, пре него што он уништи цео универзум.",
        "poster_path": "/7WsyChQLEftFiDOVTGkv3hFpyyt.jpg"
      },
      {
        "popularity": 73.386,
        "id": 122917,
        "video": false,
        "vote_count": 10017,
        "vote_average": 7.3,
        "title": "Хобит: Битка пет армија",
        "release_date": "2014-12-10",
        "original_language": "en",
        "original_title": "The Hobbit: The Battle of the Five Armies",
        "genre_ids": [28, 12, 14],
        "backdrop_path": "/bVmSXNgH1gpHYTDyF9Q826YwJT5.jpg",
        "adult": false,
        "overview": "Одлучујућа битка у Средњој Земљи води се крајем 2941. године и трећег доба испод планине Еребор. Она доноси повратак змаја Шмауга, кога је позната дружина у претходном наставку протерала из његовог станишта. Љута и опаснија него икада, ова неман ће бити стална претња становницима Дугог језера. Док ће Торин бити опседнут поново освојеним благом, Гандалфа ће бринути хоће ли становници Средње Земље препознати праву опасност која долази у лику Саурона.",
        "poster_path": "/xT98tLqatZPQApyRmlPL12LtiWp.jpg"
      }
    ]
  }
}
